%YAML 1.1
%TAG !u! tag:unity3d.com,2011:
--- !u!74 &7400000
AnimationClip:
  m_ObjectHideFlags: 0
  m_PrefabParentObject: {fileID: 0}
  m_PrefabInternal: {fileID: 0}
  m_Name: anim_scaleUp
  serializedVersion: 6
  m_Legacy: 0
  m_Compressed: 0
  m_UseHighQualityCurve: 1
  m_RotationCurves: []
  m_CompressedRotationCurves: []
  m_PositionCurves: []
  m_ScaleCurves:
  - curve:
      serializedVersion: 2
      m_Curve:
      - time: 0
        value: {x: 0, y: 0, z: 0}
        inSlope: {x: 5.76923084, y: 5.76923084, z: 4.61538458}
        outSlope: {x: 5.76923084, y: 5.76923084, z: 4.61538458}
        tangentMode: 0
      - time: .216666669
        value: {x: 1.25, y: 1.25, z: 1}
        inSlope: {x: -.865384817, y: -.865384817, z: 2.30769229}
        outSlope: {x: -.865384817, y: -.865384817, z: 2.30769229}
        tangentMode: 0
      - time: .25
        value: {x: 1, y: 1, z: 1}
        inSlope: {x: -7.50000048, y: -7.50000048, z: 0}
        outSlope: {x: -7.50000048, y: -7.50000048, z: 0}
        tangentMode: 0
      m_PreInfinity: 2
      m_PostInfinity: 2
    path: 
  m_FloatCurves: []
  m_PPtrCurves: []
  m_SampleRate: 60
  m_WrapMode: 0
  m_Bounds:
    m_Center: {x: 0, y: 0, z: 0}
    m_Extent: {x: 0, y: 0, z: 0}
  m_ClipBindingConstant:
    genericBindings:
    - path: 0
      attribute: 3
      script: {fileID: 0}
      classID: 4
      customType: 0
      isPPtrCurve: 0
    pptrCurveMapping: []
  m_AnimationClipSettings:
    serializedVersion: 2
    m_StartTime: 0
    m_StopTime: .25
    m_OrientationOffsetY: 0
    m_Level: 0
    m_CycleOffset: 0
    m_LoopTime: 0
    m_LoopBlend: 0
    m_LoopBlendOrientation: 0
    m_LoopBlendPositionY: 0
    m_LoopBlendPositionXZ: 0
    m_KeepOriginalOrientation: 0
    m_KeepOriginalPositionY: 1
    m_KeepOriginalPositionXZ: 0
    m_HeightFromFeet: 0
    m_Mirror: 0
  m_EditorCurves:
  - curve:
      serializedVersion: 2
      m_Curve:
      - time: 0
        value: 0
        inSlope: 5.76923084
        outSlope: 5.76923084
        tangentMode: 10
      - time: .216666669
        value: 1.25
        inSlope: -.865384817
        outSlope: -.865384817
        tangentMode: 10
      - time: .25
        value: 1
        inSlope: -7.50000048
        outSlope: -7.50000048
        tangentMode: 10
      m_PreInfinity: 2
      m_PostInfinity: 2
    attribute: m_LocalScale.x
    path: 
    classID: 4
    script: {fileID: 0}
  - curve:
      serializedVersion: 2
      m_Curve:
      - time: 0
        value: 0
        inSlope: 5.76923084
        outSlope: 5.76923084
        tangentMode: 10
      - time: .216666669
        value: 1.25
        inSlope: -.865384817
        outSlope: -.865384817
        tangentMode: 10
      - time: .25
        value: 1
        inSlope: -7.50000048
        outSlope: -7.50000048
        tangentMode: 10
      m_PreInfinity: 2
      m_PostInfinity: 2
    attribute: m_LocalScale.y
    path: 
    classID: 4
    script: {fileID: 0}
  - curve:
      serializedVersion: 2
      m_Curve:
      - time: 0
        value: 0
        inSlope: 4.61538458
        outSlope: 4.61538458
        tangentMode: 10
      - time: .216666669
        value: 1
        inSlope: 2.30769229
        outSlope: 2.30769229
        tangentMode: 10
      - time: .25
        value: 1
        inSlope: 0
        outSlope: 0
        tangentMode: 10
      m_PreInfinity: 2
      m_PostInfinity: 2
    attribute: m_LocalScale.z
    path: 
    classID: 4
    script: {fileID: 0}
  m_EulerEditorCurves: []
  m_HasGenericRootTransform: 0
  m_HasMotionFloatCurves: 0
  m_GenerateMotionCurves: 0
  m_Events: []
